{
    "PipelineLayout":
    {
        "DescriptorSetLayouts":
        [
            // Diffuse color texture
            {
                "binding": 0,
                "descriptorType": "eCombinedImageSampler",
                "descriptorCount": 1,
                "stageFlags": "eFragment"
            }
        ],
        "PushConstantRanges":
        [
            // Model-View-Transform matrix
            {
                "stageFlags": "eVertex,"
                "offset": 0,
                "size": 64
            }
        ]
    },
    
    "Shaders":
    [
        {
            "stage": "eVertex",
            "file": "../shaders/textures/vert.spv"
        },
        {
            "stage": "eFragment",
            "file": "../shaders/textures/frag.spv"
        }
    ],
    
    "PipelineInputAssemblyStateCreateInfo":
    {
        "topology": "eTriangleList",
        "primitiveRestartEnable": "VK_FALSE"
    },
    
    "DynamicState":
    [
        "eViewport",
        "eScissor"
    ],
    
    "PipelineRasterizationStateCreateInfo":
    {
        "depthClampEnable": "VK_FALSE",
        "rasterizerDiscardEnable": "VK_FALSE",
        "polygonMode": "eFill",
        "cullMode": "eBack",
        "frontFace": "eCounterClockwise",
        "depthBiasEnable": "VK_FALSE",
        "lineWidth": 1.0
    },
    
    "PipelineMultisampleStateCreateInfo":
    {
        "rasterizationSamples": "e1",
        "sampleShadingEnable": "VK_FALSE"
    },
    
    "PipelineColorBlendAttachmentStates":
    [
        {
            "blendEnable": "VK_TRUE",
            "srcColorBlendFactor": "eSrcAlpha",
            "dstColorBlendFactor": "eOneMinusSrcAlpha",
            "colorBlendOp": "eAdd",
            "srcAlphaBlendFactor": "eOne",
            "dstAlphaBlendFactor": "eZero",
            "alphaBlendOp": "eAdd",
            "colorWriteMask": "RGBA"
        }
    ],
    
    "PipelineDepthStencilStateCreateInfo":
    {
        "depthTestEnable": "VK_TRUE",
        "depthWriteEnable": "VK_TRUE",
        "depthCompareOp": "eLess",
        "depthBoundsTestEnable": "VK_FALSE",
        "stencilTestEnable": "VK_FALSE",
        "minDepthBounds": 0.0,
        "maxDepthBounds": 1.0
    },
    
    "subpass": 0
}