{
    "Mesh":
    {
        "VertexType": "VertexPNT",
        "IndexType": "uint16_t",
        "PrimitiveTopology": "TriangleList",
        "Vertices":
        [
            {
                "Position":  { "x": -0.5, "y": -0.5, "z": 0.0 },
                "Normal":    { "x": 0.0, "y": 0.0, "z": -1.0 },
                "TexCoords": { "u": 0.0, "v": 0.0 }
            },
            {
                "Position":  { "x": 0.5, "y": -0.5, "z": 0.0 },
                "Normal":    { "x": 0.0, "y": 0.0, "z": -1.0 },
                "TexCoords": { "u": 1.0, "v": 0.0 }
            },
            {
                "Position":  { "x": 0.5, "y": 0.5, "z": 0.0 },
                "Normal":    { "x": 0.0, "y": 0.0, "z": -1.0 },
                "TexCoords": { "u": 1.0, "v": 1.0 }
            },
            {
                "Position":  { "x": -0.5, "y": 0.5, "z": 0.0 },
                "Normal":    { "x": 0.0, "y": 0.0, "z": -1.0 },
                "TexCoords": { "u": 0.0, "v": 1.0 }
            }
        ],
        "Indices":
        [
            0, 1, 2,
            0, 2, 3
        ]
    }
}